/Users/mateusdasilva/dev/test/mercator-assigment/src/test/java/com/mercator/ui/stepdefinitions/MyStepdefs.java
/Users/mateusdasilva/dev/test/mercator-assigment/src/test/java/com/mercator/ui/pages/DressesPage.java
/Users/mateusdasilva/dev/test/mercator-assigment/src/test/java/com/mercator/ui/cucumber/RunCukesTest.java
/Users/mateusdasilva/dev/test/mercator-assigment/src/test/java/com/mercator/ui/support/Driver.java
